<?xml version="1.0" encoding="utf-8"?>
<!-- Generator: Adobe Illustrator 24.2.0, SVG Export Plug-In . SVG Version: 6.00 Build 0)  -->
<svg version="1.2" baseProfile="tiny" id="Layer_1" xmlns="http://www.w3.org/2000/svg" xmlns:xlink="http://www.w3.org/1999/xlink"
	 x="0px" y="0px" viewBox="0 0 50.1 50.1" overflow="visible" xml:space="preserve">
<g id="Group_563" transform="translate(-2356 -527)">
	<g id="Group_552" transform="translate(2376.207 544.207)">
		<circle id="Ellipse_21" fill="#F3DBCB" cx="13.3" cy="16.3" r="16.5"/>
	</g>
	<g id="Group_562" transform="translate(2359 527)">
		<g id="Group_553" transform="translate(7.039)">
			<path id="Path_170" fill="#1B77BD" d="M7.2,43c-0.2,0-0.4-0.1-0.6-0.2l-9.4-9.4c-0.3-0.3-0.3-0.7-0.1-1C-2.1,31.1,17.1,0,39.2,0
				C39.7,0,40,0.4,40,0.8C40,22.9,8.9,42.1,7.6,42.9C7.5,43,7.3,43,7.2,43z M-1.2,32.7l8.5,8.5C11.3,38.6,37.7,21,38.4,1.6
				C19.1,2.3,1.4,28.7-1.2,32.7L-1.2,32.7z"/>
		</g>
		<g id="Group_554" transform="translate(6.257 33.861)">
			<path id="Path_171" fill="#1B77BD" d="M4,9.9c-0.2,0-0.4-0.1-0.6-0.2l-6.3-6.3c-0.3-0.3-0.3-0.8,0-1.1c0,0,0,0,0,0L-0.4,0
				l1.1,1.1l-1.8,1.8L4,8.1l1.8-1.8l1.1,1.1L4.6,9.7C4.4,9.9,4.2,9.9,4,9.9z"/>
		</g>
		<g id="Group_555" transform="translate(0 38.554)">
			<path id="Path_172" fill="#1B77BD" d="M-2.2,11.5c-0.4,0-0.8-0.4-0.8-0.8C-2.8,6.7-1,2.8,1.9,0L3,1.1C0.7,3.5-0.9,6.6-1.4,9.9
				C2,9.4,5,7.9,7.4,5.5l1.1,1.1C5.7,9.5,1.8,11.3-2.2,11.5z"/>
		</g>
		<g id="Group_556" transform="translate(32.068 10.168)">
			<path id="Path_173" fill="#1B77BD" d="M0.9,7.8C-1.2,7.8-3,6.1-3,3.9S-1.2,0,0.9,0s3.9,1.8,3.9,3.9c0,0,0,0,0,0
				C4.8,6.1,3.1,7.8,0.9,7.8z M0.9,1.6c-1.3,0-2.3,1.1-2.3,2.3c0,1.3,1.1,2.3,2.3,2.3c1.3,0,2.3-1.1,2.3-2.3c0,0,0,0,0,0
				C3.3,2.6,2.2,1.6,0.9,1.6L0.9,1.6z"/>
		</g>
		<g id="Group_557" transform="translate(25.028 17.207)">
			<path id="Path_174" fill="#1B77BD" d="M0.9,7.8C-1.2,7.8-3,6.1-3,3.9S-1.2,0,0.9,0s3.9,1.8,3.9,3.9c0,0,0,0,0,0
				C4.8,6.1,3.1,7.8,0.9,7.8z M0.9,1.6c-1.3,0-2.3,1.1-2.3,2.3c0,1.3,1.1,2.3,2.3,2.3c1.3,0,2.3-1.1,2.3-2.3c0,0,0,0,0,0
				C3.3,2.6,2.2,1.6,0.9,1.6L0.9,1.6z"/>
		</g>
		<g id="Group_558" transform="translate(17.989 24.246)">
			<path id="Path_175" fill="#1B77BD" d="M0.9,7.8C-1.2,7.8-3,6.1-3,3.9S-1.2,0,0.9,0s3.9,1.8,3.9,3.9c0,0,0,0,0,0
				C4.8,6.1,3.1,7.8,0.9,7.8z M0.9,1.6c-1.3,0-2.3,1.1-2.3,2.3c0,1.3,1.1,2.3,2.3,2.3c1.3,0,2.3-1.1,2.3-2.3c0,0,0,0,0,0
				C3.3,2.6,2.2,1.6,0.9,1.6L0.9,1.6z"/>
		</g>
		<g id="Group_559" transform="translate(20.336 19.234)">
			<path id="Path_176" fill="#1B77BD" d="M5.6,30.8h-7.8C-2.7,30.8-3,30.5-3,30v-6.3h1.6v5.5h6.5L18.2,0l1.4,0.6L6.3,30.4
				C6.2,30.6,5.9,30.8,5.6,30.8z"/>
		</g>
		<g id="Group_560" transform="translate(0 7.107)">
			<path id="Path_177" fill="#1B77BD" d="M4,22.6h-6.3c-0.4,0-0.8-0.4-0.8-0.8V14c0-0.3,0.2-0.6,0.5-0.7L27.2,0l0.6,1.4L-1.4,14.5
				V21H4V22.6z"/>
		</g>
		<g id="Group_561" transform="translate(40.671 2.346)">
			<path id="Path_178" fill="#1B77BD" d="M4,7C0.2,7-3,3.9-3,0h1.6C-1.4,3,1,5.5,4,5.5V7z"/>
		</g>
	</g>
</g>
</svg>
