<?xml version="1.0" encoding="utf-8"?>
<!-- Generator: Adobe Illustrator 24.2.0, SVG Export Plug-In . SVG Version: 6.00 Build 0)  -->
<svg version="1.2" baseProfile="tiny" id="Layer_1" xmlns="http://www.w3.org/2000/svg" xmlns:xlink="http://www.w3.org/1999/xlink"
	 x="0px" y="0px" viewBox="0 0 64 64" overflow="visible" xml:space="preserve">
<g id="Group_505" transform="translate(-1602.333 -515.444)">
	<g id="Group_483">
		<circle id="Ellipse_18" fill="#F3DBCB" cx="1623.3" cy="558.4" r="21"/>
	</g>
	<g id="Group_504">
		<g id="Group_484">
			<path id="Path_152" fill="#1B77BD" d="M1634.3,577.4c-16.6,0-30-13.4-30-30s13.4-30,30-30s30,13.4,30,30
				C1664.3,564,1650.9,577.4,1634.3,577.4z M1634.3,519.4c-15.5,0-28,12.5-28,28s12.5,28,28,28s28-12.5,28-28l0,0
				C1662.3,532,1649.8,519.5,1634.3,519.4z"/>
		</g>
		<g id="Group_485">
			<rect id="Rectangle_244" x="1602.3" y="546.4" fill="#1B77BD" width="3" height="2"/>
		</g>
		<g id="Group_486">
			<rect id="Rectangle_245" x="1633.3" y="515.4" fill="#1B77BD" width="2" height="3"/>
		</g>
		<g id="Group_487">
			<rect id="Rectangle_246" x="1663.3" y="546.4" fill="#1B77BD" width="3" height="2"/>
		</g>
		<g id="Group_488">
			<rect id="Rectangle_247" x="1633.3" y="576.4" fill="#1B77BD" width="2" height="3"/>
		</g>
		<g id="Group_489">
			<path id="Path_153" fill="#1B77BD" d="M1634.3,573.4c-14.4,0-26-11.6-26-26s11.6-26,26-26s26,11.6,26,26
				C1660.3,561.8,1648.7,573.4,1634.3,573.4z M1634.3,523.4c-13.3,0-24,10.7-24,24s10.7,24,24,24s24-10.7,24-24
				C1658.3,534.2,1647.6,523.5,1634.3,523.4z"/>
		</g>
		<g id="Group_490">
			<rect id="Rectangle_248" x="1609.3" y="546.4" fill="#1B77BD" width="5" height="2"/>
		</g>
		<g id="Group_491">
			<rect id="Rectangle_249" x="1633.3" y="522.4" fill="#1B77BD" width="2" height="5"/>
		</g>
		<g id="Group_492">
			<rect id="Rectangle_250" x="1654.3" y="546.4" fill="#1B77BD" width="5" height="2"/>
		</g>
		<g id="Group_493">
			<rect id="Rectangle_251" x="1633.3" y="567.4" fill="#1B77BD" width="2" height="5"/>
		</g>
		<g id="Group_503">
			<g id="Group_494">
				
					<rect id="Rectangle_252" x="1619" y="559.9" transform="matrix(0.9191 -0.3941 0.3941 0.9191 -89.7323 684.902)" fill="#1B77BD" width="7.6" height="2"/>
			</g>
			<g id="Group_495">
				
					<rect id="Rectangle_253" x="1644.8" y="557.1" transform="matrix(0.3939 -0.9191 0.9191 0.3939 481.9097 1852.7283)" fill="#1B77BD" width="2" height="7.6"/>
			</g>
			<g id="Group_496">
				<path id="Path_154" fill="#1B77BD" d="M1638.5,564.7l-4.2-2.1l-4.2,2.1l-5.1-5.1l2.8-4.2l6.5,1.1l6.5-1.1l2.8,4.2L1638.5,564.7z
					 M1634.3,560.3l3.8,1.9l2.9-2.9l-1.2-1.8l-5.5,0.9l-5.5-0.9l-1.2,1.8l2.9,2.9L1634.3,560.3z"/>
			</g>
			<g id="Group_497">
				<rect id="Rectangle_254" x="1638.3" y="552.4" fill="#1B77BD" width="2" height="4"/>
			</g>
			<g id="Group_498">
				<rect id="Rectangle_255" x="1628.3" y="552.4" fill="#1B77BD" width="2" height="4"/>
			</g>
			<g id="Group_502">
				<g id="Group_499">
					<path id="Path_155" fill="#1B77BD" d="M1634.3,554.4c-1.9,0-3.7-0.4-5.4-1.1l-0.1-0.1c-0.1-0.1-3.4-2.3-4.4-9.7l0-0.1v-4h2v3.9
						c0.9,5.9,3.2,8,3.5,8.2c2.9,1.1,6.1,1.1,9,0c0.3-0.3,2.7-2.3,3.5-8.2v-3.9h2l0,4.1c-1.1,7.4-4.3,9.6-4.4,9.7l-0.1,0.1
						C1638.1,554.1,1636.2,554.4,1634.3,554.4z"/>
				</g>
				<g id="Group_500">
					<path id="Path_156" fill="#1B77BD" d="M1644.3,539.4h-2c0-5.5-2.5-8-8-8s-8,2.5-8,8h-2c0-6.6,3.4-10,10-10
						S1644.3,532.8,1644.3,539.4z"/>
				</g>
				<g id="Group_501">
					<path id="Path_157" fill="#1B77BD" d="M1639.4,542.5l-10-4l-3.6,1.8l-0.9-1.8l4.4-2.2l10,4l3.6-1.8l0.9,1.8L1639.4,542.5z"/>
				</g>
			</g>
		</g>
	</g>
</g>
</svg>
