<?xml version="1.0" encoding="utf-8"?>
<!-- Generator: Adobe Illustrator 19.2.0, SVG Export Plug-In . SVG Version: 6.00 Build 0)  -->
<svg version="1.1" id="Layer_1" xmlns="http://www.w3.org/2000/svg" xmlns:xlink="http://www.w3.org/1999/xlink" x="0px" y="0px"
	 viewBox="0 0 150.4 31.8" style="enable-background:new 0 0 150.4 31.8;" xml:space="preserve">
<style type="text/css">
	.st0{fill:#F5883B;}
	.st1{fill:#1A77BC;}
	.st2{fill:#404041;}
	.st3{fill:#7E8081;}
</style>
<g>
	<g>
		<path class="st0" d="M39.9,2l1.5-1.7h2.8v19.6h-2.8V4.1l-1.5,1.6V2z"/>
		<path class="st0" d="M45.6,15.9v-0.7h2.8v0.7c0,0.9,0.5,1.4,1.4,1.4c0.9,0,1.4-0.5,1.4-1.4v-5.2c0-0.9-0.5-1.4-1.4-1.4
			c-0.9,0-1.4,0.5-1.4,1.4h-2.8V0.3H54v2.8h-5.6v4.5c0.5-0.7,1.2-1,2.1-1c2.3,0,3.5,1.2,3.5,3.5v5.9c0,2.8-1.4,4.2-4.2,4.2
			C47,20.1,45.6,18.7,45.6,15.9z"/>
		<path class="st0" d="M58.9,13.6c-2.3,0-3.5-1.2-3.5-3.5V4.2c0-2.8,1.4-4.2,4.2-4.2c2.8,0,4.2,1.4,4.2,4.2v11.7
			c0,2.8-1.4,4.2-4.2,4.2c-2.8,0-4.2-1.4-4.2-4.2v-0.7h2.8v0.7c0,0.9,0.5,1.4,1.4,1.4c0.9,0,1.4-0.5,1.4-1.4v-3.4
			C60.6,13.2,59.9,13.6,58.9,13.6z M61,9.4V4.2c0-0.9-0.5-1.4-1.4-1.4c-0.9,0-1.4,0.5-1.4,1.4v5.2c0,0.9,0.5,1.4,1.4,1.4
			C60.6,10.8,61,10.3,61,9.4z"/>
		<path class="st1" d="M69.4,15h2.8v0.7c0,0.9,0.5,1.4,1.4,1.4c0.9,0,1.4-0.5,1.4-1.4v-1.1c0-1.3-0.9-2.6-2.8-3.9
			c-1.9-1.3-2.8-3-2.8-5V4.5c0-2.8,1.4-4.2,4.2-4.2c2.8,0,4.2,1.4,4.2,4.2v0.7H75V4.5c0-0.9-0.5-1.4-1.4-1.4c-0.9,0-1.4,0.5-1.4,1.4
			v1.1c0,1.3,0.9,2.6,2.8,3.9c1.9,1.3,2.8,3,2.8,5v1.1c0,2.8-1.4,4.2-4.2,4.2c-2.8,0-4.2-1.4-4.2-4.2V15z"/>
		<path class="st1" d="M87.6,4.2v11.7c0,2.8-1.4,4.2-4.2,4.2c-2.8,0-4.2-1.4-4.2-4.2V4.2c0-2.8,1.4-4.2,4.2-4.2
			C86.2,0,87.6,1.4,87.6,4.2z M83.4,2.8c-0.9,0-1.4,0.5-1.4,1.4v11.7c0,0.9,0.5,1.4,1.4,1.4c0.9,0,1.4-0.5,1.4-1.4V4.2
			C84.8,3.3,84.3,2.8,83.4,2.8z"/>
		<path class="st1" d="M89,0.3h2.8v16.8H96v2.8h-7V0.3z"/>
		<path class="st1" d="M100.2,15.7c0,0.9,0.5,1.4,1.4,1.4c0.9,0,1.4-0.5,1.4-1.4V0.3h2.8v15.4c0,2.8-1.4,4.2-4.2,4.2
			c-2.8,0-4.2-1.4-4.2-4.2V0.3h2.8V15.7z"/>
		<path class="st1" d="M115,3.1h-2.5v16.8h-2.8V3.1h-2.5V0.3h7.8V3.1z"/>
		<path class="st1" d="M119.2,0.3v19.6h-2.8V0.3H119.2z"/>
		<path class="st1" d="M129,4.2v11.7c0,2.8-1.4,4.2-4.2,4.2s-4.2-1.4-4.2-4.2V4.2c0-2.8,1.4-4.2,4.2-4.2S129,1.4,129,4.2z
			 M124.8,2.8c-0.9,0-1.4,0.5-1.4,1.4v11.7c0,0.9,0.5,1.4,1.4,1.4s1.4-0.5,1.4-1.4V4.2C126.2,3.3,125.7,2.8,124.8,2.8z"/>
		<path class="st1" d="M130.4,19.9V0.3h2.8l3.5,11.2V0.3h2.8v19.6h-2.8l-3.5-11.2v11.2H130.4z"/>
		<path class="st1" d="M140.9,15h2.8v0.7c0,0.9,0.5,1.4,1.4,1.4s1.4-0.5,1.4-1.4v-1.1c0-1.3-0.9-2.6-2.8-3.9c-1.9-1.3-2.8-3-2.8-5
			V4.5c0-2.8,1.4-4.2,4.2-4.2s4.2,1.4,4.2,4.2v0.7h-2.8V4.5c0-0.9-0.5-1.4-1.4-1.4s-1.4,0.5-1.4,1.4v1.1c0,1.3,0.9,2.6,2.8,3.9
			c1.9,1.3,2.8,3,2.8,5v1.1c0,2.8-1.4,4.2-4.2,4.2s-4.2-1.4-4.2-4.2V15z"/>
	</g>
	<g>
		<path class="st2" d="M41.5,24.2H44c0.6,0,1.1,0.1,1.6,0.3s0.9,0.4,1.3,0.8c0.4,0.3,0.6,0.7,0.8,1.2c0.2,0.5,0.3,0.9,0.3,1.5v0
			c0,0.5-0.1,1-0.3,1.5c-0.2,0.5-0.5,0.8-0.8,1.2c-0.4,0.3-0.8,0.6-1.3,0.8s-1,0.3-1.6,0.3h-2.5V24.2z M42,24.7v6.4H44
			c0.5,0,1-0.1,1.4-0.3c0.4-0.2,0.8-0.4,1.1-0.7c0.3-0.3,0.5-0.6,0.7-1c0.2-0.4,0.2-0.8,0.2-1.3v0c0-0.4-0.1-0.9-0.2-1.2
			c-0.2-0.4-0.4-0.7-0.7-1c-0.3-0.3-0.6-0.5-1.1-0.7c-0.4-0.2-0.9-0.3-1.4-0.3H42z"/>
		<path class="st2" d="M52.6,31.8c-0.3,0-0.5,0-0.8-0.1c-0.2-0.1-0.5-0.2-0.7-0.3s-0.4-0.3-0.5-0.5c-0.1-0.2-0.2-0.5-0.2-0.7v0
			c0-0.3,0.1-0.5,0.2-0.8s0.3-0.4,0.5-0.6c0.2-0.1,0.5-0.3,0.7-0.3c0.3-0.1,0.6-0.1,1-0.1c0.4,0,0.7,0,1,0.1c0.3,0,0.5,0.1,0.8,0.2
			v-0.2c0-0.5-0.2-1-0.5-1.2s-0.8-0.4-1.3-0.4c-0.3,0-0.6,0-0.9,0.1c-0.3,0.1-0.5,0.2-0.8,0.3L51,26.6c0.3-0.1,0.6-0.3,0.9-0.3
			c0.3-0.1,0.6-0.1,1-0.1c0.7,0,1.3,0.2,1.7,0.6c0.4,0.4,0.6,0.9,0.6,1.5v3.4h-0.5v-0.9c-0.1,0.1-0.2,0.3-0.3,0.4
			c-0.1,0.1-0.3,0.2-0.5,0.3c-0.2,0.1-0.4,0.2-0.6,0.2C53.1,31.8,52.8,31.8,52.6,31.8z M52.6,31.3c0.3,0,0.5,0,0.8-0.1
			c0.2-0.1,0.5-0.2,0.7-0.3s0.3-0.3,0.4-0.5c0.1-0.2,0.2-0.4,0.2-0.7V29c-0.2-0.1-0.5-0.1-0.8-0.2c-0.3-0.1-0.7-0.1-1-0.1
			c-0.6,0-1,0.1-1.3,0.3c-0.3,0.2-0.5,0.5-0.5,0.9v0c0,0.2,0,0.4,0.1,0.5c0.1,0.2,0.2,0.3,0.3,0.4c0.1,0.1,0.3,0.2,0.5,0.2
			C52.2,31.3,52.4,31.3,52.6,31.3z"/>
		<path class="st2" d="M60.1,31.8c-0.2,0-0.4,0-0.6-0.1s-0.3-0.1-0.5-0.3c-0.1-0.1-0.2-0.3-0.3-0.5c-0.1-0.2-0.1-0.4-0.1-0.7v-3.5
			h-0.8v-0.5h0.8v-1.7h0.5v1.7H61v0.5h-1.9v3.5c0,0.4,0.1,0.7,0.3,0.8s0.5,0.2,0.8,0.2c0.1,0,0.3,0,0.4,0c0.1,0,0.3-0.1,0.4-0.1v0.5
			c-0.1,0.1-0.3,0.1-0.4,0.1C60.4,31.7,60.2,31.8,60.1,31.8z"/>
		<path class="st2" d="M65.4,31.8c-0.3,0-0.5,0-0.8-0.1c-0.2-0.1-0.5-0.2-0.7-0.3c-0.2-0.1-0.4-0.3-0.5-0.5
			c-0.1-0.2-0.2-0.5-0.2-0.7v0c0-0.3,0.1-0.5,0.2-0.8s0.3-0.4,0.5-0.6c0.2-0.1,0.5-0.3,0.7-0.3c0.3-0.1,0.6-0.1,1-0.1
			c0.4,0,0.7,0,1,0.1c0.3,0,0.5,0.1,0.8,0.2v-0.2c0-0.5-0.2-1-0.5-1.2s-0.8-0.4-1.3-0.4c-0.3,0-0.6,0-0.9,0.1
			c-0.3,0.1-0.5,0.2-0.8,0.3l-0.2-0.5c0.3-0.1,0.6-0.3,0.9-0.3c0.3-0.1,0.6-0.1,1-0.1c0.7,0,1.3,0.2,1.7,0.6
			c0.4,0.4,0.6,0.9,0.6,1.5v3.4h-0.5v-0.9c-0.1,0.1-0.2,0.3-0.3,0.4c-0.1,0.1-0.3,0.2-0.5,0.3c-0.2,0.1-0.4,0.2-0.6,0.2
			C65.9,31.8,65.7,31.8,65.4,31.8z M65.5,31.3c0.3,0,0.5,0,0.8-0.1c0.2-0.1,0.5-0.2,0.7-0.3s0.3-0.3,0.4-0.5
			c0.1-0.2,0.2-0.4,0.2-0.7V29c-0.2-0.1-0.5-0.1-0.8-0.2c-0.3-0.1-0.7-0.1-1-0.1c-0.6,0-1,0.1-1.3,0.3c-0.3,0.2-0.5,0.5-0.5,0.9v0
			c0,0.2,0,0.4,0.1,0.5c0.1,0.2,0.2,0.3,0.3,0.4c0.1,0.1,0.3,0.2,0.5,0.2C65.1,31.3,65.3,31.3,65.5,31.3z"/>
		<path class="st2" d="M77.4,31.8c-0.2,0-0.4,0-0.6-0.1s-0.3-0.1-0.5-0.3c-0.1-0.1-0.2-0.3-0.3-0.5c-0.1-0.2-0.1-0.4-0.1-0.7v-3.5
			h-0.8v-0.5h0.8v-1.7h0.5v1.7h1.9v0.5h-1.9v3.5c0,0.4,0.1,0.7,0.3,0.8s0.5,0.2,0.8,0.2c0.1,0,0.3,0,0.4,0c0.1,0,0.3-0.1,0.4-0.1
			v0.5c-0.1,0.1-0.3,0.1-0.4,0.1C77.7,31.7,77.6,31.8,77.4,31.8z"/>
		<path class="st2" d="M83.4,31.8c-0.4,0-0.8-0.1-1.1-0.2c-0.3-0.2-0.6-0.4-0.9-0.6c-0.2-0.3-0.4-0.6-0.6-0.9s-0.2-0.7-0.2-1.1v0
			c0-0.4,0.1-0.7,0.2-1.1s0.3-0.6,0.6-0.9c0.3-0.3,0.5-0.5,0.9-0.6c0.3-0.2,0.7-0.2,1.1-0.2c0.4,0,0.8,0.1,1.1,0.2
			c0.3,0.2,0.6,0.4,0.9,0.6s0.4,0.6,0.6,0.9s0.2,0.7,0.2,1.1v0c0,0.4-0.1,0.7-0.2,1.1s-0.3,0.6-0.6,0.9c-0.2,0.3-0.5,0.5-0.9,0.6
			C84.1,31.7,83.8,31.8,83.4,31.8z M83.4,31.3c0.3,0,0.6-0.1,0.9-0.2c0.3-0.1,0.5-0.3,0.7-0.5s0.3-0.5,0.5-0.7
			c0.1-0.3,0.2-0.6,0.2-0.9v0c0-0.3-0.1-0.6-0.2-0.9s-0.3-0.5-0.5-0.7c-0.2-0.2-0.4-0.4-0.7-0.5c-0.3-0.1-0.6-0.2-0.9-0.2
			c-0.3,0-0.6,0.1-0.9,0.2c-0.3,0.1-0.5,0.3-0.7,0.5c-0.2,0.2-0.3,0.5-0.5,0.7c-0.1,0.3-0.2,0.6-0.2,0.9v0c0,0.3,0.1,0.6,0.2,0.9
			c0.1,0.3,0.3,0.5,0.5,0.7c0.2,0.2,0.4,0.4,0.7,0.5C82.8,31.2,83.1,31.3,83.4,31.3z"/>
		<path class="st2" d="M95.7,31.8c-0.3,0-0.6-0.1-1-0.2c-0.3-0.1-0.6-0.3-0.8-0.6c-0.2-0.2-0.4-0.5-0.6-0.9S93,29.4,93,29v0
			c0-0.4,0.1-0.8,0.2-1.2s0.4-0.6,0.6-0.9c0.2-0.2,0.5-0.4,0.8-0.6c0.3-0.1,0.6-0.2,1-0.2c0.3,0,0.5,0,0.7,0.1
			c0.2,0.1,0.4,0.2,0.6,0.3c0.2,0.1,0.3,0.3,0.5,0.4c0.1,0.2,0.3,0.3,0.4,0.5v-3.5h0.5v7.8h-0.5v-1.2c-0.1,0.2-0.3,0.3-0.4,0.5
			c-0.1,0.2-0.3,0.3-0.5,0.4c-0.2,0.1-0.4,0.2-0.6,0.3S95.9,31.8,95.7,31.8z M95.7,31.3c0.3,0,0.6-0.1,0.8-0.2
			c0.3-0.1,0.5-0.3,0.7-0.5c0.2-0.2,0.4-0.4,0.5-0.7s0.2-0.6,0.2-0.9v0c0-0.3-0.1-0.7-0.2-1c-0.1-0.3-0.3-0.5-0.5-0.7
			c-0.2-0.2-0.4-0.4-0.7-0.5c-0.3-0.1-0.5-0.2-0.8-0.2c-0.3,0-0.6,0.1-0.8,0.2c-0.3,0.1-0.5,0.3-0.7,0.5s-0.3,0.4-0.5,0.7
			c-0.1,0.3-0.2,0.6-0.2,1v0c0,0.4,0.1,0.7,0.2,1c0.1,0.3,0.3,0.5,0.5,0.7c0.2,0.2,0.4,0.4,0.7,0.5C95.2,31.2,95.4,31.3,95.7,31.3z"
			/>
		<path class="st2" d="M104,31.8c-0.4,0-0.7-0.1-1-0.2c-0.3-0.1-0.6-0.3-0.8-0.6c-0.2-0.2-0.4-0.5-0.6-0.9s-0.2-0.7-0.2-1.2v0
			c0-0.4,0.1-0.8,0.2-1.1c0.1-0.3,0.3-0.6,0.5-0.9s0.5-0.5,0.8-0.6c0.3-0.1,0.6-0.2,1-0.2c0.4,0,0.7,0.1,1,0.2s0.6,0.3,0.8,0.6
			c0.2,0.3,0.4,0.6,0.5,0.9c0.1,0.3,0.2,0.7,0.2,1.1c0,0,0,0.1,0,0.1c0,0,0,0.1,0,0.1h-4.5c0,0.3,0.1,0.6,0.2,0.9
			c0.1,0.3,0.3,0.5,0.5,0.7c0.2,0.2,0.4,0.3,0.7,0.4c0.2,0.1,0.5,0.1,0.8,0.1c0.4,0,0.8-0.1,1.1-0.2c0.3-0.2,0.6-0.4,0.8-0.6
			l0.4,0.3c-0.3,0.3-0.6,0.5-0.9,0.7C104.9,31.7,104.5,31.8,104,31.8z M105.8,28.7c0-0.3-0.1-0.5-0.2-0.8c-0.1-0.3-0.2-0.5-0.4-0.7
			c-0.2-0.2-0.4-0.4-0.6-0.5c-0.2-0.1-0.5-0.2-0.8-0.2c-0.3,0-0.5,0.1-0.8,0.2c-0.2,0.1-0.4,0.3-0.6,0.4c-0.2,0.2-0.3,0.4-0.4,0.7
			c-0.1,0.3-0.2,0.5-0.2,0.8H105.8z"/>
		<path class="st2" d="M111.5,31.8c-0.4,0-0.8-0.1-1.1-0.2c-0.3-0.2-0.6-0.4-0.9-0.6c-0.2-0.3-0.4-0.6-0.6-0.9
			c-0.1-0.3-0.2-0.7-0.2-1.1v0c0-0.4,0.1-0.7,0.2-1.1c0.1-0.3,0.3-0.6,0.6-0.9c0.2-0.3,0.5-0.5,0.9-0.6s0.7-0.2,1.1-0.2
			c0.3,0,0.5,0,0.7,0.1c0.2,0.1,0.4,0.1,0.6,0.2s0.3,0.2,0.5,0.3c0.1,0.1,0.3,0.2,0.4,0.4l-0.4,0.4c-0.2-0.2-0.5-0.4-0.8-0.6
			s-0.6-0.3-1-0.3c-0.3,0-0.6,0.1-0.9,0.2c-0.3,0.1-0.5,0.3-0.7,0.5c-0.2,0.2-0.3,0.5-0.5,0.7c-0.1,0.3-0.2,0.6-0.2,0.9v0
			c0,0.3,0.1,0.6,0.2,0.9c0.1,0.3,0.3,0.5,0.5,0.7c0.2,0.2,0.4,0.4,0.7,0.5c0.3,0.1,0.6,0.2,0.9,0.2c0.4,0,0.7-0.1,1-0.3
			s0.6-0.4,0.8-0.6l0.4,0.3c-0.3,0.3-0.6,0.6-0.9,0.8S112,31.8,111.5,31.8z"/>
		<path class="st2" d="M116.5,24.1h0.6v0.7h-0.6V24.1z M116.6,26.2h0.5v5.4h-0.5V26.2z"/>
		<path class="st2" d="M122.2,31.8c-0.4,0-0.8-0.1-1.2-0.2s-0.7-0.3-1-0.6l0.3-0.4c0.3,0.2,0.6,0.4,0.9,0.5c0.3,0.1,0.7,0.2,1,0.2
			c0.4,0,0.7-0.1,0.9-0.3c0.3-0.2,0.4-0.4,0.4-0.8v0c0-0.2,0-0.3-0.1-0.4s-0.2-0.2-0.3-0.3c-0.1-0.1-0.3-0.2-0.5-0.2
			s-0.4-0.1-0.5-0.2c-0.2-0.1-0.4-0.1-0.7-0.2c-0.2-0.1-0.4-0.2-0.6-0.3c-0.2-0.1-0.3-0.2-0.4-0.4c-0.1-0.2-0.2-0.4-0.2-0.6v0
			c0-0.2,0-0.4,0.1-0.6c0.1-0.2,0.2-0.3,0.4-0.5c0.2-0.1,0.3-0.2,0.6-0.3s0.5-0.1,0.7-0.1c0.3,0,0.7,0.1,1,0.2
			c0.3,0.1,0.6,0.3,0.9,0.4l-0.3,0.4c-0.2-0.2-0.5-0.3-0.8-0.4c-0.3-0.1-0.6-0.1-0.9-0.1c-0.4,0-0.7,0.1-0.9,0.3
			c-0.2,0.2-0.3,0.4-0.3,0.7v0c0,0.1,0,0.3,0.1,0.4s0.2,0.2,0.3,0.3c0.1,0.1,0.3,0.1,0.5,0.2c0.2,0.1,0.4,0.1,0.6,0.2
			c0.2,0.1,0.4,0.1,0.6,0.2c0.2,0.1,0.4,0.2,0.6,0.3s0.3,0.3,0.4,0.4c0.1,0.2,0.2,0.4,0.2,0.6v0c0,0.2,0,0.5-0.1,0.7
			c-0.1,0.2-0.2,0.4-0.4,0.5s-0.4,0.2-0.6,0.3C122.7,31.7,122.4,31.8,122.2,31.8z"/>
		<path class="st2" d="M127,24.1h0.6v0.7H127V24.1z M127,26.2h0.5v5.4H127V26.2z"/>
		<path class="st2" d="M133.3,31.8c-0.4,0-0.8-0.1-1.1-0.2c-0.3-0.2-0.6-0.4-0.9-0.6c-0.2-0.3-0.4-0.6-0.6-0.9s-0.2-0.7-0.2-1.1v0
			c0-0.4,0.1-0.7,0.2-1.1s0.3-0.6,0.6-0.9s0.5-0.5,0.9-0.6s0.7-0.2,1.1-0.2c0.4,0,0.8,0.1,1.1,0.2c0.3,0.2,0.6,0.4,0.9,0.6
			s0.4,0.6,0.6,0.9s0.2,0.7,0.2,1.1v0c0,0.4-0.1,0.7-0.2,1.1s-0.3,0.6-0.6,0.9c-0.2,0.3-0.5,0.5-0.9,0.6
			C134,31.7,133.7,31.8,133.3,31.8z M133.3,31.3c0.3,0,0.6-0.1,0.9-0.2c0.3-0.1,0.5-0.3,0.7-0.5s0.3-0.5,0.5-0.7
			c0.1-0.3,0.2-0.6,0.2-0.9v0c0-0.3-0.1-0.6-0.2-0.9s-0.3-0.5-0.5-0.7c-0.2-0.2-0.4-0.4-0.7-0.5s-0.6-0.2-0.9-0.2
			c-0.3,0-0.6,0.1-0.9,0.2c-0.3,0.1-0.5,0.3-0.7,0.5c-0.2,0.2-0.3,0.5-0.5,0.7c-0.1,0.3-0.2,0.6-0.2,0.9v0c0,0.3,0.1,0.6,0.2,0.9
			c0.1,0.3,0.3,0.5,0.5,0.7c0.2,0.2,0.4,0.4,0.7,0.5C132.7,31.2,133,31.3,133.3,31.3z"/>
		<path class="st2" d="M138.9,26.2h0.5v1c0.2-0.3,0.4-0.6,0.7-0.8s0.7-0.3,1.2-0.3c0.3,0,0.6,0.1,0.9,0.2c0.3,0.1,0.5,0.3,0.7,0.5
			s0.3,0.4,0.4,0.7s0.1,0.6,0.1,0.9v3.3h-0.5v-3.2c0-0.6-0.1-1-0.4-1.3c-0.3-0.3-0.7-0.5-1.3-0.5c-0.3,0-0.5,0-0.7,0.1
			s-0.4,0.2-0.6,0.4s-0.3,0.4-0.4,0.6s-0.1,0.5-0.1,0.8v3.1h-0.5V26.2z"/>
		<path class="st2" d="M148.5,31.8c-0.4,0-0.8-0.1-1.2-0.2s-0.7-0.3-1-0.6l0.3-0.4c0.3,0.2,0.6,0.4,0.9,0.5c0.3,0.1,0.7,0.2,1,0.2
			c0.4,0,0.7-0.1,0.9-0.3c0.3-0.2,0.4-0.4,0.4-0.8v0c0-0.2,0-0.3-0.1-0.4s-0.2-0.2-0.3-0.3c-0.1-0.1-0.3-0.2-0.5-0.2
			s-0.4-0.1-0.5-0.2c-0.2-0.1-0.4-0.1-0.7-0.2c-0.2-0.1-0.4-0.2-0.6-0.3c-0.2-0.1-0.3-0.2-0.4-0.4c-0.1-0.2-0.2-0.4-0.2-0.6v0
			c0-0.2,0-0.4,0.1-0.6c0.1-0.2,0.2-0.3,0.4-0.5c0.2-0.1,0.3-0.2,0.6-0.3s0.5-0.1,0.7-0.1c0.3,0,0.7,0.1,1,0.2
			c0.3,0.1,0.6,0.3,0.9,0.4l-0.3,0.4c-0.2-0.2-0.5-0.3-0.8-0.4c-0.3-0.1-0.6-0.1-0.9-0.1c-0.4,0-0.7,0.1-0.9,0.3
			c-0.2,0.2-0.3,0.4-0.3,0.7v0c0,0.1,0,0.3,0.1,0.4s0.2,0.2,0.3,0.3c0.1,0.1,0.3,0.1,0.5,0.2c0.2,0.1,0.4,0.1,0.6,0.2
			c0.2,0.1,0.4,0.1,0.6,0.2c0.2,0.1,0.4,0.2,0.6,0.3s0.3,0.3,0.4,0.4c0.1,0.2,0.2,0.4,0.2,0.6v0c0,0.2,0,0.5-0.1,0.7
			c-0.1,0.2-0.2,0.4-0.4,0.5s-0.4,0.2-0.6,0.3C149,31.7,148.7,31.8,148.5,31.8z"/>
	</g>
	<g>
		<circle class="st0" cx="17" cy="3.1" r="2.9"/>
		<circle class="st1" cx="20.7" cy="9.4" r="2.9"/>
		<circle class="st1" cx="13.3" cy="9.4" r="2.9"/>
		<circle class="st3" cx="20.6" cy="22.4" r="2.9"/>
		<circle class="st3" cx="27.7" cy="22.4" r="2.9"/>
		<circle class="st3" cx="13.4" cy="22.4" r="2.9"/>
		<circle class="st3" cx="6.2" cy="22.4" r="2.9"/>
		<circle class="st1" cx="24.1" cy="16.1" r="2.9"/>
		<circle class="st1" cx="17" cy="16.1" r="2.9"/>
		<circle class="st1" cx="9.8" cy="16.1" r="2.9"/>
		<circle class="st3" cx="24.1" cy="28.8" r="2.9"/>
		<circle class="st3" cx="31.1" cy="28.8" r="2.9"/>
		<circle class="st3" cx="17" cy="28.8" r="2.9"/>
		<circle class="st3" cx="9.9" cy="28.8" r="2.9"/>
		<circle class="st3" cx="2.9" cy="28.8" r="2.9"/>
	</g>
</g>
</svg>
